EESchema Schematic File Version 4
EELAYER 30 0
EELAYER END
$Descr A3 16535 11693
encoding utf-8
Sheet 1 1
Title ""
Date ""
Rev ""
Comp ""
Comment1 ""
Comment2 ""
Comment3 ""
Comment4 ""
$EndDescr
Text GLabel 5150 9550 0    50   Input ~ 0
DIS
Text GLabel 5750 9550 2    50   Input ~ 0
S
Text GLabel 5550 8900 2    50   Input ~ 0
V5V
Text GLabel 5750 10050 2    50   Input ~ 0
GND
Text Notes 4350 8650 0    50   ~ 0
DISCHARGE
$Comp
L fab:RES-US1206FAB R14
U 1 1 5EF1D825
P 5450 9250
F 0 "R14" V 5408 9318 45  0000 L CNN
F 1 "10 K" V 5492 9318 45  0000 L CNN
F 2 "fab:R_1206" H 5480 9400 20  0001 C CNN
F 3 "" H 5450 9250 50  0001 C CNN
	1    5450 9250
	0    1    1    0   
$EndComp
Wire Wire Line
	5450 8900 5550 8900
Text GLabel 4100 7500 0    50   Input ~ 0
V5V
Text GLabel 5500 7500 2    50   Input ~ 0
GND
Wire Wire Line
	4350 7200 4550 7200
Wire Wire Line
	4850 7200 5300 7200
$Comp
L fab:RESONATOR M3
U 1 1 5EFC6DC1
P 2150 3700
F 0 "M3" H 2150 3954 45  0000 C CNN
F 1 "RESONATOR 20MHZ" H 2150 3870 45  0000 C CNN
F 2 "fab-EFOBM" H 2180 3850 20  0001 C CNN
F 3 "" H 2150 3700 50  0001 C CNN
	1    2150 3700
	1    0    0    -1  
$EndComp
Text GLabel 1500 3700 0    50   Input ~ 0
XTAL1
Text GLabel 2350 4200 2    50   Input ~ 0
GND
Wire Wire Line
	2350 4200 2150 4200
Wire Wire Line
	2150 4200 2150 4000
Wire Wire Line
	1500 3700 1850 3700
Wire Wire Line
	2450 3700 2700 3700
Text Notes 950  3200 0    50   ~ 0
RESONATOR 20MHZ
$Comp
L fab:ATMEGA16U2-TQ M8
U 1 1 5F0358DB
P 9900 6300
F 0 "M8" H 9950 7486 45  0000 C CNN
F 1 "ATMEGA16U2-TQ" H 9700 7350 45  0000 L BNN
F 2 "fab-TQFP32-08THIN" H 9930 6450 20  0001 C CNN
F 3 "" H 9900 6300 50  0001 C CNN
	1    9900 6300
	1    0    0    -1  
$EndComp
Text GLabel 8400 5800 0    50   Input ~ 0
D+
Text GLabel 8400 5900 0    50   Input ~ 0
D-
$Comp
L Timer:LM555xN U1
U 1 1 5EF0D551
P 2800 9700
F 0 "U1" H 2350 9250 50  0000 C CNN
F 1 "LM555xN" H 2350 9100 50  0000 C CNN
F 2 "Package_DIP:DIP-8_W7.62mm" H 3450 9300 50  0001 C CNN
F 3 "http://www.ti.com/lit/ds/symlink/lm555.pdf" H 3650 9300 50  0001 C CNN
	1    2800 9700
	1    0    0    -1  
$EndComp
Text GLabel 2800 10200 3    50   Input ~ 0
GND
$Comp
L fab:CAP-UNPOLARIZEDFAB C4
U 1 1 5EF13D7D
P 2000 9500
F 0 "C4" H 1950 9714 45  0000 C CNN
F 1 "0.001 uF" H 1950 9630 45  0000 C CNN
F 2 "fab:R_1206" H 2030 9650 20  0001 C CNN
F 3 "" H 2000 9500 50  0001 C CNN
	1    2000 9500
	1    0    0    -1  
$EndComp
Wire Wire Line
	2800 10200 2800 10100
Text GLabel 3300 9700 2    50   Input ~ 0
DIS
Text GLabel 1550 9500 0    50   Input ~ 0
GND
Text GLabel 2900 9050 2    50   Input ~ 0
V5V
Text GLabel 2000 9900 0    50   Input ~ 0
V5V
Wire Wire Line
	2000 9900 2300 9900
Wire Wire Line
	1800 9500 1550 9500
Wire Wire Line
	2100 9500 2200 9500
Text GLabel 3300 9900 2    50   Input ~ 0
T
Text GLabel 3300 9500 2    50   Input ~ 0
TIMER
Text Notes 1150 8700 0    50   ~ 0
555 TIMER IC
Text GLabel 2350 9050 2    50   Input ~ 0
T
Wire Wire Line
	2200 9050 2200 9500
Connection ~ 2200 9500
Wire Wire Line
	2200 9500 2300 9500
Text GLabel 2300 7300 2    50   Input ~ 0
S
Text GLabel 2300 7600 2    50   Input ~ 0
T
Text Notes 1100 6800 0    50   ~ 0
JACK 3.5mm (input)
Text Notes 3600 6800 0    50   ~ 0
INPUT FILTERING
Wire Wire Line
	4350 7200 4350 7500
Wire Wire Line
	5300 7200 5300 7500
Wire Wire Line
	4100 7500 4350 7500
Connection ~ 4350 7500
Wire Wire Line
	4350 7500 4350 7750
Wire Wire Line
	5500 7500 5300 7500
Connection ~ 5300 7500
Wire Wire Line
	5300 7500 5300 7750
NoConn ~ 2300 9700
Wire Wire Line
	5450 8900 5450 9050
Wire Wire Line
	5450 9450 5450 9550
Wire Wire Line
	5750 9550 5450 9550
Connection ~ 5450 9550
$Comp
L fab:CAP-UNPOLARIZEDFAB C3
U 1 1 5F206B5D
P 4750 7200
F 0 "C3" H 4700 7414 45  0000 C CNN
F 1 "41uF" H 4700 7330 45  0000 C CNN
F 2 "fab-C1206FAB" H 4780 7350 20  0001 C CNN
F 3 "" H 4750 7200 50  0001 C CNN
	1    4750 7200
	1    0    0    -1  
$EndComp
$Comp
L fab:CAP-UNPOLARIZEDFAB C5
U 1 1 5F20DD20
P 5400 10050
F 0 "C5" H 5350 9836 45  0000 C CNN
F 1 "470uF" H 5350 9920 45  0000 C CNN
F 2 "fab-C1206FAB" H 5430 10200 20  0001 C CNN
F 3 "" H 5400 10050 50  0001 C CNN
	1    5400 10050
	-1   0    0    1   
$EndComp
Wire Wire Line
	5150 9550 5250 9550
Wire Wire Line
	5750 10050 5600 10050
Wire Wire Line
	5300 10050 5250 10050
Wire Wire Line
	5250 10050 5250 9550
Connection ~ 5250 9550
Wire Wire Line
	5250 9550 5450 9550
Text GLabel 11500 6400 2    50   Input ~ 0
TIMER
Text GLabel 8400 7000 0    50   Input ~ 0
GND
Text GLabel 8400 7100 0    50   Input ~ 0
V5V
Text GLabel 8400 6000 0    50   Input ~ 0
V5V
Text GLabel 8400 6300 0    50   Input ~ 0
V5V
Text GLabel 8400 5700 0    50   Input ~ 0
GND
Text GLabel 7600 5600 0    50   Input ~ 0
GND
$Comp
L fab:CAP-UNPOLARIZEDFAB C6
U 1 1 5F2EAD29
P 8050 5600
F 0 "C6" H 8000 5814 45  0000 C CNN
F 1 "1uF" H 8000 5730 45  0000 C CNN
F 2 "fab-C1206FAB" H 8080 5750 20  0001 C CNN
F 3 "" H 8050 5600 50  0001 C CNN
	1    8050 5600
	1    0    0    -1  
$EndComp
Wire Wire Line
	7600 5600 7850 5600
Wire Wire Line
	8150 5600 8400 5600
Text GLabel 2700 3700 2    50   Input ~ 0
XTAL2
Text GLabel 8400 6600 0    50   Input ~ 0
XTAL1
Text GLabel 8400 6700 0    50   Input ~ 0
XTAL2
Text GLabel 4250 3800 0    50   Input ~ 0
MISO
Text GLabel 4250 3900 0    50   Input ~ 0
SCK
Text GLabel 4250 4000 0    50   Input ~ 0
RST
Wire Wire Line
	4250 4000 4650 4000
Wire Wire Line
	4250 3900 4650 3900
Wire Wire Line
	4250 3800 4650 3800
Text GLabel 5400 3900 2    50   Input ~ 0
MOSI
Text GLabel 5400 4000 2    50   Input ~ 0
GND
Text GLabel 11500 6100 2    50   Input ~ 0
MISO
Text GLabel 11500 6200 2    50   Input ~ 0
MOSI
Text GLabel 11500 6300 2    50   Input ~ 0
SCK
Text Notes 3700 3200 0    50   ~ 0
ISP
Wire Wire Line
	4950 3900 5400 3900
Wire Wire Line
	4950 3800 5400 3800
Wire Wire Line
	4950 4000 5400 4000
Text GLabel 5400 3800 2    50   Input ~ 0
RESET
Text GLabel 9400 3350 2    50   Input ~ 0
V5V
$Comp
L fab:RES-US1206FAB R18
U 1 1 5F4B2963
P 9300 3750
F 0 "R18" V 9258 3818 45  0000 L CNN
F 1 "10K" V 9342 3818 45  0000 L CNN
F 2 "fab:R_1206" H 9330 3900 20  0001 C CNN
F 3 "" H 9300 3750 50  0001 C CNN
	1    9300 3750
	0    1    1    0   
$EndComp
Wire Wire Line
	2350 9050 2200 9050
Wire Wire Line
	2900 9050 2800 9050
Wire Wire Line
	2800 9050 2800 9300
Wire Wire Line
	9400 3350 9300 3350
Wire Wire Line
	9300 3350 9300 3550
Wire Wire Line
	9400 4150 9300 4150
Wire Wire Line
	9300 3950 9300 4150
Wire Notes Line
	850  750  3150 750 
Wire Notes Line
	3350 2450 3350 750 
Wire Notes Line
	5700 2450 3350 2450
Wire Notes Line
	5700 750  5700 2450
Wire Notes Line
	3350 750  5700 750 
Wire Wire Line
	1700 2250 1850 2250
Wire Wire Line
	1700 1800 1700 2250
Wire Wire Line
	1850 1700 1850 1900
Wire Wire Line
	1700 1700 1850 1700
Wire Wire Line
	2400 1900 2250 1900
$Comp
L fab:RES-US1206FAB R1
U 1 1 5F41E0E6
P 2050 1900
F 0 "R1" H 2050 2094 45  0000 C CNN
F 1 "22R" H 2050 2010 45  0000 C CNN
F 2 "fab:R_1206" H 2080 2050 20  0001 C CNN
F 3 "" H 2050 1900 50  0001 C CNN
	1    2050 1900
	1    0    0    -1  
$EndComp
Text GLabel 2400 1900 2    50   Input ~ 0
D-
Wire Wire Line
	2400 2250 2250 2250
$Comp
L fab:RES-US1206FAB R2
U 1 1 5F40673C
P 2050 2250
F 0 "R2" H 2050 2444 45  0000 C CNN
F 1 "22R" H 2050 2360 45  0000 C CNN
F 2 "fab:R_1206" H 2080 2400 20  0001 C CNN
F 3 "" H 2050 2250 50  0001 C CNN
	1    2050 2250
	1    0    0    -1  
$EndComp
Text GLabel 4150 1800 0    50   Input ~ 0
V-BUCK
Text GLabel 2700 1600 2    50   Input ~ 0
V-USB
Text Notes 3450 950  0    50   ~ 0
PROGRAMMER SWITCH
Text Notes 950  900  0    50   ~ 0
MINI USB
Text GLabel 2400 2250 2    50   Input ~ 0
D+
Wire Wire Line
	2100 1500 1700 1500
Text GLabel 2100 1500 2    50   Input ~ 0
GND
Wire Wire Line
	5100 1700 4750 1700
Text GLabel 5100 1700 2    50   Input ~ 0
V5V
Wire Wire Line
	4350 1600 4150 1600
Text GLabel 4150 1600 0    50   Input ~ 0
V-USB
Wire Wire Line
	4150 1800 4350 1800
$Comp
L fab:SLIDE-SWITCH S1
U 1 1 5F055FBF
P 4550 1700
F 0 "S1" H 4650 1300 45  0000 C CNN
F 1 "SLIDE-SWITCH" H 4600 1400 45  0000 C CNN
F 2 "fab2020:Switch_SPDT_C&K_AYZ0102AGRLC_7.2x3mm_P2.5mm" H 4580 1850 20  0001 C CNN
F 3 "" H 4550 1700 50  0001 C CNN
	1    4550 1700
	-1   0    0    1   
$EndComp
Wire Notes Line
	850  3000 3350 3000
Wire Notes Line
	3350 3000 3350 4600
Wire Notes Line
	3350 4600 850  4600
Wire Notes Line
	850  4600 850  3000
Wire Notes Line
	3600 3000 6100 3000
Wire Notes Line
	6100 3000 6100 4700
Wire Notes Line
	6100 4700 3600 4700
Wire Notes Line
	3600 4700 3600 3000
Wire Notes Line
	1050 6650 3250 6650
Wire Notes Line
	3250 6650 3250 8200
Wire Notes Line
	3250 8200 1050 8200
Wire Notes Line
	1050 8200 1050 6650
Wire Notes Line
	1050 8500 3950 8500
Wire Notes Line
	3950 8500 3950 10750
Wire Notes Line
	3950 10750 1050 10750
Wire Notes Line
	1050 10750 1050 8500
Wire Notes Line
	3500 6650 6050 6650
Wire Notes Line
	6050 6650 6050 8200
Wire Notes Line
	6050 8200 3500 8200
Wire Notes Line
	3500 8200 3500 6650
Wire Notes Line
	4250 8500 6700 8500
Wire Notes Line
	6700 8500 6700 10600
Wire Notes Line
	6700 10600 4250 10600
Wire Notes Line
	4250 10600 4250 8500
Text GLabel 9500 5200 1    50   Input ~ 0
GMOSFET_01
Text GLabel 13200 1650 0    50   Input ~ 0
LED_01
$Comp
L fab:RES-US1206FAB R15
U 1 1 5F4F1C62
P 13650 1650
F 0 "R15" H 13650 1844 45  0000 C CNN
F 1 "330R" H 13650 1760 45  0000 C CNN
F 2 "fab:R_1206" H 13680 1800 20  0001 C CNN
F 3 "" H 13650 1650 50  0001 C CNN
	1    13650 1650
	1    0    0    -1  
$EndComp
Text GLabel 14800 1650 2    50   Input ~ 0
GND
Wire Wire Line
	14800 1650 14450 1650
Wire Wire Line
	14150 1650 13850 1650
Wire Wire Line
	13450 1650 13200 1650
Text Notes 12550 1000 0    50   ~ 0
LED
Wire Notes Line
	12450 850  15550 850 
Wire Notes Line
	15550 850  15550 3250
Wire Notes Line
	15550 3250 12450 3250
Wire Notes Line
	12450 3250 12450 850 
Text GLabel 9100 5200 1    50   Input ~ 0
LED_01
$Comp
L fab:LEDFAB1206 M5
U 1 1 5F4F1C68
P 14350 1650
F 0 "M5" V 14554 1700 45  0000 C CNN
F 1 "LEDFAB1206" V 14470 1700 45  0000 C CNN
F 2 "fab:R_1206" H 14380 1800 20  0001 C CNN
F 3 "" H 14350 1650 50  0001 C CNN
	1    14350 1650
	0    -1   -1   0   
$EndComp
Wire Notes Line
	3150 750  3150 2700
Wire Notes Line
	3150 2700 850  2700
Wire Notes Line
	850  2700 850  750 
Text Notes 8050 2100 0    157  ~ 31
LOW POWER
Text GLabel 11500 5800 2    50   Input ~ 0
GMOSFET_04
Text GLabel 11500 5900 2    50   Input ~ 0
GMOSFET_03
Text GLabel 11500 6000 2    50   Input ~ 0
GMOSFET_02
Text GLabel 11500 5700 2    50   Input ~ 0
GMOSFET_05_PWM
Text GLabel 9600 7400 3    50   Input ~ 0
PD1
Text GLabel 9500 7400 3    50   Input ~ 0
PD0
Text GLabel 9400 7400 3    50   Input ~ 0
PC2
Text GLabel 14800 4000 0    50   Input ~ 0
GMOSFET_01
Text GLabel 14800 4300 0    50   Input ~ 0
GMOSFET_03
Text GLabel 14800 4100 0    50   Input ~ 0
GMOSFET_05_PWM
Text Notes 13850 3700 0    50   ~ 0
PIN OUT
NoConn ~ 2300 7400
NoConn ~ 2300 7500
NoConn ~ 2300 7700
Text GLabel 14800 3900 0    50   Input ~ 0
V-BUCK
Text GLabel 14800 4500 0    50   Input ~ 0
GND
NoConn ~ 11500 6700
Text GLabel 14800 4200 0    50   Input ~ 0
GMOSFET_04
Text GLabel 14800 4400 0    50   Input ~ 0
GMOSFET_02
NoConn ~ 11500 6800
NoConn ~ 11500 6900
NoConn ~ 9700 7400
NoConn ~ 9800 7400
NoConn ~ 9900 7400
Text GLabel 9400 4150 2    50   Input ~ 0
RESET
$Comp
L fab2020:PINHD-1x07-HEADER M2
U 1 1 5F0AEFF1
P 14800 4400
F 0 "M2" H 14800 4400 45  0001 C CNN
F 1 "PINHD-1x07-HEADER" H 14800 4400 45  0001 C CNN
F 2 "fab:fab-1X07" H 14830 4550 20  0001 C CNN
F 3 "" H 14800 4400 50  0001 C CNN
	1    14800 4400
	1    0    0    -1  
$EndComp
Wire Notes Line
	13600 3400 15600 3400
Wire Notes Line
	15600 3400 15600 4950
Wire Notes Line
	15600 4950 13600 4950
Wire Notes Line
	13600 4950 13600 3400
$Comp
L Connector:AudioJack3_SwitchTR J2
U 1 1 5F086341
P 2100 7400
F 0 "J2" H 2082 7725 50  0000 C CNN
F 1 "AudioJack3_SwitchTR" H 2082 7634 50  0000 C CNN
F 2 "Connector_Audio:Jack_3.5mm_Ledino_KB3SPRS_Horizontal" H 2100 7400 50  0001 C CNN
F 3 "~" H 2100 7400 50  0001 C CNN
	1    2100 7400
	1    0    0    -1  
$EndComp
$Comp
L fab:CAP-UNPOLARIZEDFAB C2
U 1 1 5EF1716B
P 5050 7750
F 0 "C2" H 5050 7500 45  0000 R CNN
F 1 "1 uF" H 5050 7600 45  0000 R CNN
F 2 "fab:R_1206" H 5080 7900 20  0001 C CNN
F 3 "" H 5050 7750 50  0001 C CNN
	1    5050 7750
	-1   0    0    1   
$EndComp
$Comp
L fab:RES-US1206FAB R19
U 1 1 5F0A6C92
P 4650 7750
F 0 "R19" V 4608 7818 45  0000 L CNN
F 1 "0R" V 4692 7818 45  0000 L CNN
F 2 "fab:R_1206" H 4680 7900 20  0001 C CNN
F 3 "" H 4650 7750 50  0001 C CNN
	1    4650 7750
	-1   0    0    1   
$EndComp
Wire Wire Line
	4350 7750 4450 7750
Wire Wire Line
	4850 7750 4950 7750
Wire Wire Line
	5250 7750 5300 7750
$Comp
L fab:RES-US1206FAB R20
U 1 1 5F0BA672
P 2400 1600
F 0 "R20" V 2358 1668 45  0000 L CNN
F 1 "0R" V 2442 1668 45  0000 L CNN
F 2 "fab:R_1206" H 2430 1750 20  0001 C CNN
F 3 "" H 2400 1600 50  0001 C CNN
	1    2400 1600
	-1   0    0    1   
$EndComp
Wire Wire Line
	1700 1600 2200 1600
Wire Wire Line
	2600 1600 2700 1600
$Comp
L fab:AVRISPSMD M4
U 1 1 5F0C5947
P 4750 3900
F 0 "M4" H 4848 4254 45  0000 C CNN
F 1 "AVRISPSMD" H 4848 4170 45  0000 C CNN
F 2 "fab-2X03SMD" H 4780 4050 20  0001 C CNN
F 3 "" H 4750 3900 50  0001 C CNN
	1    4750 3900
	1    0    0    -1  
$EndComp
$Comp
L fab2020:USB_MINIB M1
U 1 1 5F0FAFF9
P 1600 1700
F 0 "M1" H 1600 1700 45  0001 C CNN
F 1 "USB_MINIB" H 1600 1700 45  0001 C CNN
F 2 "fab:fab-USB_MINIB" H 1630 1850 20  0001 C CNN
F 3 "" H 1600 1700 50  0001 C CNN
	1    1600 1700
	-1   0    0    1   
$EndComp
Text GLabel 1500 1300 1    50   Input ~ 0
GND
$EndSCHEMATC
