EESchema Schematic File Version 4
EELAYER 30 0
EELAYER END
$Descr A3 16535 11693
encoding utf-8
Sheet 1 1
Title ""
Date ""
Rev ""
Comp ""
Comment1 ""
Comment2 ""
Comment3 ""
Comment4 ""
$EndDescr
Wire Notes Line
	3450 8300 800  8300
Wire Notes Line
	6400 5950 6400 8300
$Comp
L fab:NMOSFETSOT23 T3
U 1 1 5F0A64D5
P 2300 9700
F 0 "T3" H 2408 9742 45  0000 L CNN
F 1 "NMOSFETSOT23" H 2408 9658 45  0000 L CNN
F 2 "fab-SOT-23" H 2330 9850 20  0001 C CNN
F 3 "" H 2300 9700 50  0001 C CNN
	1    2300 9700
	1    0    0    -1  
$EndComp
Text GLabel 1650 9800 0    50   Input ~ 0
GMOSFET_03
Wire Wire Line
	2100 9800 1900 9800
Text GLabel 2600 9300 2    50   Input ~ 0
DMOSFET_03
Wire Wire Line
	2600 9300 2300 9300
Wire Wire Line
	2300 9300 2300 9500
Text GLabel 2650 10550 2    50   Input ~ 0
GND
Connection ~ 1900 9800
Wire Wire Line
	1900 9800 1650 9800
$Comp
L fab:RES-US1206FAB R6
U 1 1 5F0A64E7
P 1900 10150
F 0 "R6" V 1858 10218 45  0000 L CNN
F 1 "10K" V 1942 10218 45  0000 L CNN
F 2 "fab:R_1206" H 1930 10300 20  0001 C CNN
F 3 "" H 1900 10150 50  0001 C CNN
	1    1900 10150
	0    1    1    0   
$EndComp
Wire Wire Line
	1900 9950 1900 9800
Wire Wire Line
	1900 10350 1900 10550
Text Notes 900  8800 0    50   ~ 0
MOSFET (03)
Wire Notes Line
	800  8600 3450 8600
Wire Notes Line
	3450 8600 3450 10950
Wire Notes Line
	3450 10950 800  10950
Wire Notes Line
	800  10950 800  8600
Text Notes 3850 8800 0    50   ~ 0
MOSFET (04)
Wire Notes Line
	3750 8600 6400 8600
Wire Notes Line
	6400 8600 6400 10950
Wire Notes Line
	6400 10950 3750 10950
Wire Notes Line
	3750 10950 3750 8600
Text Notes 7100 8800 0    50   ~ 0
MOSFET (05)
Wire Notes Line
	10650 8600 10650 10950
Wire Notes Line
	900  2700 900  750 
Wire Notes Line
	5150 2700 900  2700
Wire Notes Line
	5150 750  5150 2700
Wire Notes Line
	900  750  5150 750 
Wire Notes Line
	900  4600 900  2900
Wire Notes Line
	3000 4600 900  4600
Wire Notes Line
	3000 2900 3000 4600
Wire Notes Line
	900  2900 3000 2900
Wire Notes Line
	3750 8300 3750 5950
Wire Notes Line
	3750 5950 6400 5950
Text Notes 3850 6150 0    50   ~ 0
MOSFET (02)
Wire Notes Line
	800  8300 800  5950
Wire Notes Line
	3450 5950 3450 8300
Wire Notes Line
	800  5950 3450 5950
Text Notes 900  6150 0    50   ~ 0
MOSFET (01)
Text Notes 1000 3100 0    50   ~ 0
DC JACK
Wire Wire Line
	2450 1450 2250 1450
Connection ~ 2450 1450
Wire Wire Line
	2450 1500 2450 1450
Text GLabel 2600 1850 2    50   Input ~ 0
GND
Text GLabel 3800 1450 2    50   Input ~ 0
V-BUCK
Text Notes 1000 950  0    50   ~ 0
BOOST BUCK
$Comp
L fab:DIODESOD123 D1
U 1 1 5F2C2ABD
P 3150 1450
F 0 "D1" H 3200 1350 45  0000 C CNN
F 1 "DO41Z10" H 3250 1250 45  0000 C CNN
F 2 "fab2020:fab-DO41Z10" H 3180 1600 20  0001 C CNN
F 3 "" H 3150 1450 50  0001 C CNN
	1    3150 1450
	1    0    0    -1  
$EndComp
Wire Wire Line
	3250 1450 3800 1450
$Comp
L Connector:Barrel_Jack_Switch J1
U 1 1 5F2E3D0B
P 1750 3850
F 0 "J1" H 1750 4250 50  0000 C CNN
F 1 "Barrel_Jack_Switch" H 1800 4150 50  0000 C CNN
F 2 "Connector_BarrelJack:BarrelJack_Wuerth_6941xx301002" H 1800 3810 50  0001 C CNN
F 3 "~" H 1800 3810 50  0001 C CNN
	1    1750 3850
	1    0    0    -1  
$EndComp
Text GLabel 2350 3750 2    50   Input ~ 0
V12V
Text GLabel 2350 3950 2    50   Input ~ 0
GND
Wire Wire Line
	2050 3950 2200 3950
Wire Wire Line
	2050 3750 2350 3750
Wire Wire Line
	2050 3850 2200 3850
Wire Wire Line
	2200 3850 2200 3950
Connection ~ 2200 3950
Wire Wire Line
	2200 3950 2350 3950
Wire Wire Line
	1900 10550 2300 10550
Wire Wire Line
	2300 9900 2300 10550
Connection ~ 2300 10550
Wire Wire Line
	2300 10550 2650 10550
$Comp
L pump:VALVE P1
U 1 1 5F3ED611
P 10750 2150
F 0 "P1" H 10554 2515 50  0000 C CNN
F 1 "VALVE" H 10554 2424 50  0000 C CNN
F 2 "VALVE:CJV23" H 10750 2150 50  0001 C CNN
F 3 "" H 10750 2150 50  0001 C CNN
	1    10750 2150
	1    0    0    -1  
$EndComp
Text GLabel 8750 1500 0    50   Input ~ 0
V12V
Text GLabel 8750 2650 0    50   Input ~ 0
DMOSFET_01
$Comp
L fab:DIODESOD123 D2
U 1 1 5F3ED619
P 9350 1800
F 0 "D2" V 9350 2000 45  0000 R CNN
F 1 "DIODESOD123" V 9250 2400 45  0000 R CNN
F 2 "fab2020:fab-DO41Z10" H 9380 1950 20  0001 C CNN
F 3 "" H 9350 1800 50  0001 C CNN
	1    9350 1800
	0    -1   -1   0   
$EndComp
$Comp
L fab:RES-US1206FAB R9
U 1 1 5F3ED61F
P 9350 2250
F 0 "R9" V 9308 2318 45  0000 L CNN
F 1 "10K" V 9392 2318 45  0000 L CNN
F 2 "fab:R_1206" H 9380 2400 20  0001 C CNN
F 3 "" H 9350 2250 50  0001 C CNN
	1    9350 2250
	0    1    1    0   
$EndComp
Wire Wire Line
	8750 1500 9350 1500
Wire Wire Line
	9800 1500 9800 2050
Wire Wire Line
	9800 2050 10500 2050
Wire Wire Line
	10500 2250 9800 2250
Wire Wire Line
	9800 2250 9800 2650
Wire Wire Line
	9800 2650 9350 2650
Wire Wire Line
	9350 2650 9350 2450
Connection ~ 9350 2650
Wire Wire Line
	9350 2650 8750 2650
Wire Wire Line
	9350 2050 9350 1900
Wire Wire Line
	9350 1700 9350 1500
Connection ~ 9350 1500
Wire Wire Line
	9350 1500 9800 1500
Wire Notes Line
	6400 8300 3750 8300
$Comp
L fab:NMOSFETSOT23 T2
U 1 1 5F441293
P 2300 7000
F 0 "T2" H 2408 7042 45  0000 L CNN
F 1 "NMOSFETSOT23" H 2408 6958 45  0000 L CNN
F 2 "fab-SOT-23" H 2330 7150 20  0001 C CNN
F 3 "" H 2300 7000 50  0001 C CNN
	1    2300 7000
	1    0    0    -1  
$EndComp
Wire Wire Line
	2100 7100 1900 7100
Text GLabel 2600 6600 2    50   Input ~ 0
DMOSFET_01
Wire Wire Line
	2600 6600 2300 6600
Wire Wire Line
	2300 6600 2300 6800
Text GLabel 2650 7850 2    50   Input ~ 0
GND
Connection ~ 1900 7100
Wire Wire Line
	1900 7100 1650 7100
$Comp
L fab:RES-US1206FAB R4
U 1 1 5F4412A1
P 1900 7450
F 0 "R4" V 1858 7518 45  0000 L CNN
F 1 "10K" V 1942 7518 45  0000 L CNN
F 2 "fab:R_1206" H 1930 7600 20  0001 C CNN
F 3 "" H 1900 7450 50  0001 C CNN
	1    1900 7450
	0    1    1    0   
$EndComp
Wire Wire Line
	1900 7250 1900 7100
Wire Wire Line
	1900 7650 1900 7850
Wire Wire Line
	1900 7850 2300 7850
Wire Wire Line
	2300 7200 2300 7850
Connection ~ 2300 7850
Wire Wire Line
	2300 7850 2650 7850
$Comp
L fab:NMOSFETSOT23 T4
U 1 1 5F447DFF
P 5150 6900
F 0 "T4" H 5258 6942 45  0000 L CNN
F 1 "NMOSFETSOT23" H 5258 6858 45  0000 L CNN
F 2 "fab-SOT-23" H 5180 7050 20  0001 C CNN
F 3 "" H 5150 6900 50  0001 C CNN
	1    5150 6900
	1    0    0    -1  
$EndComp
Text GLabel 4500 7000 0    50   Input ~ 0
GMOSFET_02
Wire Wire Line
	4950 7000 4750 7000
Text GLabel 5450 6500 2    50   Input ~ 0
DMOSFET_02
Wire Wire Line
	5450 6500 5150 6500
Wire Wire Line
	5150 6500 5150 6700
Text GLabel 5500 7750 2    50   Input ~ 0
GND
Connection ~ 4750 7000
Wire Wire Line
	4750 7000 4500 7000
$Comp
L fab:RES-US1206FAB R5
U 1 1 5F447E0D
P 4750 7350
F 0 "R5" V 4708 7418 45  0000 L CNN
F 1 "10K" V 4792 7418 45  0000 L CNN
F 2 "fab:R_1206" H 4780 7500 20  0001 C CNN
F 3 "" H 4750 7350 50  0001 C CNN
	1    4750 7350
	0    1    1    0   
$EndComp
Wire Wire Line
	4750 7150 4750 7000
Wire Wire Line
	4750 7550 4750 7750
Wire Wire Line
	4750 7750 5150 7750
Wire Wire Line
	5150 7100 5150 7750
Connection ~ 5150 7750
Wire Wire Line
	5150 7750 5500 7750
$Comp
L fab:NMOSFETSOT23 T5
U 1 1 5F4500CD
P 5150 9600
F 0 "T5" H 5258 9642 45  0000 L CNN
F 1 "NMOSFETSOT23" H 5258 9558 45  0000 L CNN
F 2 "fab-SOT-23" H 5180 9750 20  0001 C CNN
F 3 "" H 5150 9600 50  0001 C CNN
	1    5150 9600
	1    0    0    -1  
$EndComp
Text GLabel 4500 9700 0    50   Input ~ 0
GMOSFET_04
Wire Wire Line
	4950 9700 4750 9700
Text GLabel 5450 9200 2    50   Input ~ 0
DMOSFET_04
Wire Wire Line
	5450 9200 5150 9200
Wire Wire Line
	5150 9200 5150 9400
Text GLabel 5500 10450 2    50   Input ~ 0
GND
Connection ~ 4750 9700
Wire Wire Line
	4750 9700 4500 9700
$Comp
L fab:RES-US1206FAB R7
U 1 1 5F4500DB
P 4750 10050
F 0 "R7" V 4708 10118 45  0000 L CNN
F 1 "10K" V 4792 10118 45  0000 L CNN
F 2 "fab:R_1206" H 4780 10200 20  0001 C CNN
F 3 "" H 4750 10050 50  0001 C CNN
	1    4750 10050
	0    1    1    0   
$EndComp
Wire Wire Line
	4750 9850 4750 9700
Wire Wire Line
	4750 10250 4750 10450
Wire Wire Line
	4750 10450 5150 10450
Wire Wire Line
	5150 9800 5150 10450
Connection ~ 5150 10450
Wire Wire Line
	5150 10450 5500 10450
$Comp
L fab:NMOSFETSOT23 T1
U 1 1 5F4582D8
P 9450 9550
F 0 "T1" H 9558 9592 45  0000 L CNN
F 1 "NMOSFETSOT23" H 9558 9508 45  0000 L CNN
F 2 "fab-SOT-23" H 9480 9700 20  0001 C CNN
F 3 "" H 9450 9550 50  0001 C CNN
	1    9450 9550
	1    0    0    -1  
$EndComp
Text GLabel 7800 9650 0    50   Input ~ 0
GMOSFET_05_PWM
Wire Wire Line
	9250 9650 9050 9650
Text GLabel 9750 9150 2    50   Input ~ 0
DMOSFET_05_PWM
Wire Wire Line
	9750 9150 9450 9150
Wire Wire Line
	9450 9150 9450 9350
Text GLabel 9800 10400 2    50   Input ~ 0
GND
Connection ~ 9050 9650
$Comp
L fab:RES-US1206FAB R8
U 1 1 5F4582E6
P 9050 10000
F 0 "R8" V 9008 10068 45  0000 L CNN
F 1 "10K" V 9092 10068 45  0000 L CNN
F 2 "fab:R_1206" H 9080 10150 20  0001 C CNN
F 3 "" H 9050 10000 50  0001 C CNN
	1    9050 10000
	0    1    1    0   
$EndComp
Wire Wire Line
	9050 9800 9050 9650
Wire Wire Line
	9050 10200 9050 10400
Wire Wire Line
	9050 10400 9450 10400
Wire Wire Line
	9450 9750 9450 10400
Connection ~ 9450 10400
Wire Wire Line
	9450 10400 9800 10400
Text Notes 7800 1000 0    50   ~ 0
VALVE (01)
Wire Notes Line
	7700 800  11550 800 
Wire Notes Line
	11550 800  11550 3300
Wire Notes Line
	11550 3300 7700 3300
Wire Notes Line
	7700 3300 7700 800 
$Comp
L pump:VALVE P3
U 1 1 5F474CF0
P 14900 2150
F 0 "P3" H 14704 2515 50  0000 C CNN
F 1 "VALVE" H 14704 2424 50  0000 C CNN
F 2 "VALVE:CJV23" H 14900 2150 50  0001 C CNN
F 3 "" H 14900 2150 50  0001 C CNN
	1    14900 2150
	1    0    0    -1  
$EndComp
Text GLabel 12900 1500 0    50   Input ~ 0
V12V
Text GLabel 12900 2650 0    50   Input ~ 0
DMOSFET_02
$Comp
L fab:RES-US1206FAB R10
U 1 1 5F474CFE
P 13500 2250
F 0 "R10" V 13458 2318 45  0000 L CNN
F 1 "10K" V 13542 2318 45  0000 L CNN
F 2 "fab:R_1206" H 13530 2400 20  0001 C CNN
F 3 "" H 13500 2250 50  0001 C CNN
	1    13500 2250
	0    1    1    0   
$EndComp
Wire Wire Line
	12900 1500 13500 1500
Wire Wire Line
	13950 1500 13950 2050
Wire Wire Line
	13950 2050 14650 2050
Wire Wire Line
	14650 2250 13950 2250
Wire Wire Line
	13950 2250 13950 2650
Wire Wire Line
	13950 2650 13500 2650
Wire Wire Line
	13500 2650 13500 2450
Connection ~ 13500 2650
Wire Wire Line
	13500 2650 12900 2650
Wire Wire Line
	13500 2050 13500 1900
Wire Wire Line
	13500 1700 13500 1500
Connection ~ 13500 1500
Wire Wire Line
	13500 1500 13950 1500
Text Notes 11950 1000 0    50   ~ 0
VALVE (02)
Wire Notes Line
	11850 800  15700 800 
Wire Notes Line
	15700 800  15700 3300
Wire Notes Line
	15700 3300 11850 3300
Wire Notes Line
	11850 3300 11850 800 
$Comp
L pump:VALVE P2
U 1 1 5F47F9FD
P 10750 5000
F 0 "P2" H 10554 5365 50  0000 C CNN
F 1 "VALVE" H 10554 5274 50  0000 C CNN
F 2 "VALVE:CJV23" H 10750 5000 50  0001 C CNN
F 3 "" H 10750 5000 50  0001 C CNN
	1    10750 5000
	1    0    0    -1  
$EndComp
Text GLabel 8750 4350 0    50   Input ~ 0
V12V
Text GLabel 8750 5500 0    50   Input ~ 0
DMOSFET_03
$Comp
L fab:DIODESOD123 D3
U 1 1 5F47FA05
P 9350 4650
F 0 "D3" V 9350 4850 45  0000 R CNN
F 1 "DIODESOD123" V 9250 5250 45  0000 R CNN
F 2 "fab2020:fab-DO41Z10" H 9380 4800 20  0001 C CNN
F 3 "" H 9350 4650 50  0001 C CNN
	1    9350 4650
	0    -1   -1   0   
$EndComp
$Comp
L fab:RES-US1206FAB R11
U 1 1 5F47FA0B
P 9350 5100
F 0 "R11" V 9308 5168 45  0000 L CNN
F 1 "10K" V 9392 5168 45  0000 L CNN
F 2 "fab:R_1206" H 9380 5250 20  0001 C CNN
F 3 "" H 9350 5100 50  0001 C CNN
	1    9350 5100
	0    1    1    0   
$EndComp
Wire Wire Line
	8750 4350 9350 4350
Wire Wire Line
	9800 4350 9800 4900
Wire Wire Line
	9800 4900 10500 4900
Wire Wire Line
	10500 5100 9800 5100
Wire Wire Line
	9800 5100 9800 5500
Wire Wire Line
	9800 5500 9350 5500
Wire Wire Line
	9350 5500 9350 5300
Connection ~ 9350 5500
Wire Wire Line
	9350 5500 8750 5500
Wire Wire Line
	9350 4900 9350 4750
Wire Wire Line
	9350 4550 9350 4350
Connection ~ 9350 4350
Wire Wire Line
	9350 4350 9800 4350
Text Notes 7800 3850 0    50   ~ 0
VALVE (03)
Wire Notes Line
	7700 3650 11550 3650
Wire Notes Line
	11550 3650 11550 6150
Wire Notes Line
	11550 6150 7700 6150
Wire Notes Line
	7700 6150 7700 3650
$Comp
L pump:VALVE P4
U 1 1 5F48AEBF
P 14950 5000
F 0 "P4" H 14754 5365 50  0000 C CNN
F 1 "VALVE" H 14754 5274 50  0000 C CNN
F 2 "VALVE:CJV23" H 14950 5000 50  0001 C CNN
F 3 "" H 14950 5000 50  0001 C CNN
	1    14950 5000
	1    0    0    -1  
$EndComp
Text GLabel 12950 4350 0    50   Input ~ 0
V12V
Text GLabel 12950 5500 0    50   Input ~ 0
DMOSFET_04
$Comp
L fab:DIODESOD123 D5
U 1 1 5F48AEC7
P 13550 4650
F 0 "D5" V 13550 4850 45  0000 R CNN
F 1 "DIODESOD123" V 13450 5250 45  0000 R CNN
F 2 "fab2020:fab-DO41Z10" H 13580 4800 20  0001 C CNN
F 3 "" H 13550 4650 50  0001 C CNN
	1    13550 4650
	0    -1   -1   0   
$EndComp
$Comp
L fab:RES-US1206FAB R12
U 1 1 5F48AECD
P 13550 5100
F 0 "R12" V 13508 5168 45  0000 L CNN
F 1 "10K" V 13592 5168 45  0000 L CNN
F 2 "fab:R_1206" H 13580 5250 20  0001 C CNN
F 3 "" H 13550 5100 50  0001 C CNN
	1    13550 5100
	0    1    1    0   
$EndComp
Wire Wire Line
	12950 4350 13550 4350
Wire Wire Line
	14000 4350 14000 4900
Wire Wire Line
	14000 4900 14700 4900
Wire Wire Line
	14700 5100 14000 5100
Wire Wire Line
	14000 5100 14000 5500
Wire Wire Line
	14000 5500 13550 5500
Wire Wire Line
	13550 5500 13550 5300
Connection ~ 13550 5500
Wire Wire Line
	13550 5500 12950 5500
Wire Wire Line
	13550 4900 13550 4750
Wire Wire Line
	13550 4550 13550 4350
Connection ~ 13550 4350
Wire Wire Line
	13550 4350 14000 4350
Text Notes 12000 3850 0    50   ~ 0
VALVE (04)
Wire Notes Line
	11900 3650 15750 3650
Wire Notes Line
	15750 3650 15750 6150
Wire Notes Line
	15750 6150 11900 6150
Wire Notes Line
	11900 6150 11900 3650
Text GLabel 13000 7100 0    50   Input ~ 0
V12V
Text GLabel 13000 8250 0    50   Input ~ 0
DMOSFET_05_PWM
$Comp
L fab:DIODESOD123 D6
U 1 1 5F4C3E11
P 13600 7400
F 0 "D6" V 13600 7600 45  0000 R CNN
F 1 "DIODESOD123" V 13500 8000 45  0000 R CNN
F 2 "fab2020:fab-DO41Z10" H 13630 7550 20  0001 C CNN
F 3 "" H 13600 7400 50  0001 C CNN
	1    13600 7400
	0    -1   -1   0   
$EndComp
$Comp
L fab:RES-US1206FAB R13
U 1 1 5F4C3E17
P 13600 7850
F 0 "R13" V 13558 7918 45  0000 L CNN
F 1 "10K" V 13642 7918 45  0000 L CNN
F 2 "fab:R_1206" H 13630 8000 20  0001 C CNN
F 3 "" H 13600 7850 50  0001 C CNN
	1    13600 7850
	0    1    1    0   
$EndComp
Wire Wire Line
	13000 7100 13600 7100
Wire Wire Line
	14050 7100 14050 7650
Wire Wire Line
	14050 7650 14750 7650
Wire Wire Line
	13600 8250 13600 8050
Wire Wire Line
	13600 8250 13000 8250
Wire Wire Line
	13600 7650 13600 7500
Wire Wire Line
	13600 7300 13600 7100
Connection ~ 13600 7100
Wire Wire Line
	13600 7100 14050 7100
Text Notes 12050 6600 0    50   ~ 0
AIR PUMP
Wire Notes Line
	11950 6400 15800 6400
Wire Notes Line
	15800 6400 15800 8900
Wire Notes Line
	15800 8900 11950 8900
Wire Notes Line
	11950 8900 11950 6400
Text Notes 8450 7300 0    157  ~ 31
HIGH POWER
Text Notes 4800 3400 0    50   ~ 0
PIN IN
Text GLabel 5750 4000 0    50   Input ~ 0
GMOSFET_01
Text GLabel 5750 4400 0    50   Input ~ 0
GMOSFET_02
Text GLabel 5750 4300 0    50   Input ~ 0
GMOSFET_03
Text GLabel 5750 4200 0    50   Input ~ 0
GMOSFET_04
Text GLabel 5750 4100 0    50   Input ~ 0
GMOSFET_05_PWM
Wire Notes Line
	4700 3200 6450 3200
Wire Notes Line
	6450 3200 6450 5250
Wire Notes Line
	6450 5250 4700 5250
Wire Notes Line
	4700 5250 4700 3200
$Comp
L fab2020:TERM-1X02-FABLAB J2
U 1 1 5F0A8264
P 14750 7750
F 0 "J2" H 14978 7800 45  0000 L CNN
F 1 "TERM-1X02-FABLAB" H 14750 7750 45  0001 L BNN
F 2 "fab:fab-ED555DS-2DS" H 14780 7900 20  0001 C CNN
F 3 "" H 14750 7750 50  0001 C CNN
	1    14750 7750
	1    0    0    -1  
$EndComp
Wire Wire Line
	13600 8250 14050 8250
Wire Wire Line
	14050 8250 14050 7750
Wire Wire Line
	14050 7750 14750 7750
Connection ~ 13600 8250
Text GLabel 5750 3900 0    50   Input ~ 0
V-BUCK
Text GLabel 5750 4500 0    50   Input ~ 0
GND
$Comp
L fab2020:PINHD-1x07-HEADER M1
U 1 1 5F088A77
P 5750 4400
F 0 "M1" H 5750 4400 45  0001 C CNN
F 1 "PINHD-1x07-HEADER" H 5750 4400 45  0001 C CNN
F 2 "fab:fab-1X07" H 5780 4550 20  0001 C CNN
F 3 "" H 5750 4400 50  0001 C CNN
	1    5750 4400
	1    0    0    -1  
$EndComp
$Comp
L CUSTOM_POWER:boost-buck B1
U 1 1 5F0A2547
P 2250 1850
F 0 "B1" H 2250 1850 45  0001 C CNN
F 1 "boost-buck" H 2250 1850 45  0001 C CNN
F 2 "boost:boost-buck" H 2280 2000 20  0001 C CNN
F 3 "" H 2250 1850 50  0001 C CNN
	1    2250 1850
	-1   0    0    1   
$EndComp
Text GLabel 2250 2350 2    50   Input ~ 0
V12V
Text GLabel 2250 2150 2    50   Input ~ 0
GND
Wire Wire Line
	2250 1750 2250 1450
Wire Wire Line
	2450 1450 3050 1450
Wire Wire Line
	7100 2200 6850 2200
Text GLabel 7100 2200 2    50   Input ~ 0
GND
$Comp
L fab:LEDFAB1206 M2
U 1 1 5F0D6556
P 6750 2200
F 0 "M2" V 6954 2250 45  0000 C CNN
F 1 "LEDFAB1206" V 6870 2250 45  0000 C CNN
F 2 "fab:R_1206" H 6780 2350 20  0001 C CNN
F 3 "" H 6750 2200 50  0001 C CNN
	1    6750 2200
	0    -1   -1   0   
$EndComp
$Comp
L fab:RES-US1206FAB R1
U 1 1 5F0D655C
P 6250 2200
F 0 "R1" H 6250 2394 45  0000 C CNN
F 1 "500R" H 6250 2310 45  0000 C CNN
F 2 "fab:R_1206" H 6280 2350 20  0001 C CNN
F 3 "" H 6250 2200 50  0001 C CNN
	1    6250 2200
	1    0    0    -1  
$EndComp
Wire Wire Line
	6450 2200 6550 2200
Wire Wire Line
	5900 2200 6050 2200
Text GLabel 5900 2200 0    50   Input ~ 0
V-BUCK
Text Notes 5550 1650 0    50   ~ 0
POWER LED
Wire Notes Line
	5400 1500 7450 1500
Wire Notes Line
	7450 1500 7450 2600
Wire Notes Line
	7450 2600 5400 2600
Wire Notes Line
	5400 2600 5400 1500
Wire Wire Line
	2250 1850 2450 1850
Wire Wire Line
	2450 1850 2600 1850
Connection ~ 2450 1850
Wire Wire Line
	2450 1800 2450 1850
$Comp
L fab:CAP-UNPOLARIZEDFAB C1
U 1 1 5F02B22B
P 2450 1700
F 0 "C1" V 2358 1788 45  0000 L CNN
F 1 "10uF" V 2442 1788 45  0000 L CNN
F 2 "fab-C1206FAB" H 2480 1850 20  0001 C CNN
F 3 "" H 2450 1700 50  0001 C CNN
	1    2450 1700
	0    1    1    0   
$EndComp
Wire Notes Line
	6800 8600 6800 10950
Wire Notes Line
	6800 8600 10650 8600
Wire Notes Line
	6800 10950 10650 10950
$Comp
L fab:DIODESOD123 D4
U 1 1 5F474CF8
P 13500 1800
F 0 "D4" V 13500 2000 45  0000 R CNN
F 1 "DIODESOD123" V 13400 2400 45  0000 R CNN
F 2 "fab2020:fab-DO41Z10" H 13530 1950 20  0001 C CNN
F 3 "" H 13500 1800 50  0001 C CNN
	1    13500 1800
	0    -1   -1   0   
$EndComp
Text GLabel 1650 7100 0    50   Input ~ 0
GMOSFET_01
Wire Wire Line
	7800 9650 9050 9650
$EndSCHEMATC
