EESchema Schematic File Version 4
EELAYER 30 0
EELAYER END
$Descr A2 23386 16535
encoding utf-8
Sheet 1 1
Title ""
Date ""
Rev ""
Comp ""
Comment1 ""
Comment2 ""
Comment3 ""
Comment4 ""
$EndDescr
$Comp
L Timer:LM555xN U1
U 1 1 5EF0D551
P 3100 1850
F 0 "U1" H 2650 1400 50  0000 C CNN
F 1 "LM555xN" H 2650 1250 50  0000 C CNN
F 2 "Package_DIP:DIP-8_W7.62mm" H 3750 1450 50  0001 C CNN
F 3 "http://www.ti.com/lit/ds/symlink/lm555.pdf" H 3950 1450 50  0001 C CNN
	1    3100 1850
	1    0    0    -1  
$EndComp
$Comp
L MCU_Microchip_ATmega:ATmega328P-AU U2
U 1 1 5EF10980
P 7300 3000
F 0 "U2" H 6850 1350 50  0000 C CNN
F 1 "ATmega328P-AU" H 6850 1200 50  0000 C CNN
F 2 "Package_QFP:TQFP-32_7x7mm_P0.8mm" H 7300 3000 50  0001 C CIN
F 3 "http://ww1.microchip.com/downloads/en/DeviceDoc/ATmega328_P%20AVR%20MCU%20with%20picoPower%20Technology%20Data%20Sheet%2040001984A.pdf" H 7300 3000 50  0001 C CNN
	1    7300 3000
	1    0    0    -1  
$EndComp
Text GLabel 3100 2350 3    50   Input ~ 0
GND
Text GLabel 7300 4500 3    50   Input ~ 0
GND
$Comp
L fab:CAP-UNPOLARIZEDFAB C1
U 1 1 5EF13D7D
P 2300 1650
F 0 "C1" H 2250 1864 45  0000 C CNN
F 1 "0.001 uF" H 2250 1780 45  0000 C CNN
F 2 "fab:R_1206" H 2330 1800 20  0001 C CNN
F 3 "" H 2300 1650 50  0001 C CNN
	1    2300 1650
	1    0    0    -1  
$EndComp
Wire Wire Line
	3100 2350 3100 2250
$Comp
L fab:CAP-UNPOLARIZEDFAB C2
U 1 1 5EF1716B
P 1650 4250
F 0 "C2" H 1650 4000 45  0000 R CNN
F 1 "1 uF" H 1650 4100 45  0000 R CNN
F 2 "fab:R_1206" H 1680 4400 20  0001 C CNN
F 3 "" H 1650 4250 50  0001 C CNN
	1    1650 4250
	-1   0    0    1   
$EndComp
$Comp
L fab:CAP-US1206FAB C3
U 1 1 5EF1B461
P 1650 3700
F 0 "C3" H 1700 3954 45  0000 C CNN
F 1 "41 uF" H 1700 3870 45  0000 C CNN
F 2 "fab:R_1206" H 1680 3850 20  0001 C CNN
F 3 "" H 1650 3700 50  0001 C CNN
	1    1650 3700
	1    0    0    -1  
$EndComp
Text GLabel 3600 1850 2    50   Input ~ 0
DIS
Text GLabel 1850 1650 0    50   Input ~ 0
GND
Text GLabel 3100 1250 1    50   Input ~ 0
V5V
Text GLabel 3900 4350 0    50   Input ~ 0
DIS
Text GLabel 4850 4350 2    50   Input ~ 0
S
Wire Wire Line
	3900 4350 4000 4350
Text GLabel 4300 3700 2    50   Input ~ 0
V5V
Text GLabel 4000 5750 3    50   Input ~ 0
GND
Connection ~ 4000 4350
Text GLabel 2300 2050 0    50   Input ~ 0
V5V
Wire Wire Line
	2300 2050 2600 2050
Wire Wire Line
	2100 1650 1850 1650
Wire Wire Line
	2400 1650 2500 1650
Text GLabel 3600 2050 2    50   Input ~ 0
T
Wire Wire Line
	3100 1450 3100 1250
Wire Wire Line
	4000 4350 4200 4350
Wire Wire Line
	4200 4100 4200 4350
Connection ~ 4200 4350
Text GLabel 8250 2200 2    50   Input ~ 0
TIMER
Wire Wire Line
	8250 2200 7900 2200
Text GLabel 3600 1650 2    50   Input ~ 0
TIMER
Text GLabel 7300 1300 1    50   Input ~ 0
V5V
Wire Wire Line
	7300 1300 7300 1500
Text Notes 1200 1000 0    50   ~ 0
555 Timer IC
Text Notes 6100 850  0    50   ~ 0
ATmega328P
Wire Notes Line
	5750 700  5750 5800
Text Notes 3600 3550 0    50   ~ 0
Discharge
Text Notes 950  5650 0    50   ~ 0
Jack 3.5 mm
Wire Notes Line
	3150 3350 3150 7000
Wire Notes Line
	750  5150 2850 5150
Wire Notes Line
	850  3100 5250 3100
$Comp
L fab:RES-US1206FAB R2
U 1 1 5EF1D825
P 4200 3900
F 0 "R2" V 4158 3968 45  0000 L CNN
F 1 "10 K" V 4242 3968 45  0000 L CNN
F 2 "fab:R_1206" H 4230 4050 20  0001 C CNN
F 3 "" H 4200 3900 50  0001 C CNN
	1    4200 3900
	0    1    1    0   
$EndComp
Wire Wire Line
	4200 3700 4300 3700
Text GLabel 2500 1200 1    50   Input ~ 0
T
Wire Wire Line
	2500 1200 2500 1650
Connection ~ 2500 1650
Wire Wire Line
	2500 1650 2600 1650
Wire Wire Line
	4200 4350 4850 4350
Text GLabel 900  4050 0    50   Input ~ 0
V5V
Text GLabel 2450 4050 2    50   Input ~ 0
GND
Wire Wire Line
	900  4050 1350 4050
Wire Wire Line
	1350 4050 1350 3700
Wire Wire Line
	1350 3700 1550 3700
Wire Wire Line
	1850 3700 2300 3700
Wire Wire Line
	2300 3700 2300 4050
Wire Wire Line
	2300 4050 2450 4050
Wire Wire Line
	1350 4050 1350 4250
Wire Wire Line
	1350 4250 1550 4250
Connection ~ 1350 4050
Wire Wire Line
	1850 4250 2300 4250
Wire Wire Line
	2300 4250 2300 4050
Connection ~ 2300 4050
Wire Wire Line
	4000 4700 4000 4350
Wire Wire Line
	4000 5000 4000 5750
$Comp
L Connector:AudioJack5 J1
U 1 1 5EF51529
P 1900 6450
F 0 "J1" H 1807 6875 50  0000 C CNN
F 1 "AudioJack5" H 1807 6784 50  0000 C CNN
F 2 "" H 1900 6450 50  0001 C CNN
F 3 "~" H 1900 6450 50  0001 C CNN
	1    1900 6450
	1    0    0    -1  
$EndComp
Text GLabel 2100 6650 2    50   Input ~ 0
T
Text GLabel 2100 6250 2    50   Input ~ 0
S
$Comp
L fab:CAP-US1206FAB C4
U 1 1 5EF53F12
P 4000 4800
F 0 "C4" V 4008 4928 45  0000 L CNN
F 1 "470 uF" V 4092 4928 45  0000 L CNN
F 2 "fab-C1206FAB" H 4030 4950 20  0001 C CNN
F 3 "" H 4000 4800 50  0001 C CNN
	1    4000 4800
	0    1    1    0   
$EndComp
$Comp
L fab:RESONATOR M1
U 1 1 5EFC6DC1
P 10150 5450
F 0 "M1" H 10150 5704 45  0000 C CNN
F 1 "RESONATOR 20MHZ" H 10150 5620 45  0000 C CNN
F 2 "fab-EFOBM" H 10180 5600 20  0001 C CNN
F 3 "" H 10150 5450 50  0001 C CNN
	1    10150 5450
	1    0    0    -1  
$EndComp
$Comp
L fab:AVRISP M2
U 1 1 5EFC8D43
P 10200 3700
F 0 "M2" H 10298 4054 45  0000 C CNN
F 1 "AVRISP" H 10298 3970 45  0000 C CNN
F 2 "fab-2X03" H 10230 3850 20  0001 C CNN
F 3 "" H 10200 3700 50  0001 C CNN
	1    10200 3700
	1    0    0    -1  
$EndComp
$Comp
L pump:PUMP P1
U 1 1 5EFC8903
P 15000 8100
F 0 "P1" H 15000 8450 50  0000 C CNN
F 1 "PUMP" H 15050 8100 50  0000 C CNN
F 2 "" H 15000 8100 50  0001 C CNN
F 3 "" H 15000 8100 50  0001 C CNN
	1    15000 8100
	1    0    0    -1  
$EndComp
$Comp
L fab:NMOSFETSOT23 T?
U 1 1 5EFCBD2B
P 10150 7550
F 0 "T?" H 10258 7592 45  0000 L CNN
F 1 "NMOSFETSOT23" H 10258 7508 45  0000 L CNN
F 2 "fab-SOT-23" H 10180 7700 20  0001 C CNN
F 3 "" H 10150 7550 50  0001 C CNN
	1    10150 7550
	1    0    0    -1  
$EndComp
Text GLabel 9500 7650 0    50   Input ~ 0
GMOSFET_03
Wire Wire Line
	9950 7650 9750 7650
Text GLabel 10450 7150 2    50   Input ~ 0
DMOSFET_03
Wire Wire Line
	10450 7150 10150 7150
Wire Wire Line
	10150 7150 10150 7350
Text GLabel 10450 7900 2    50   Input ~ 0
GND
Wire Wire Line
	10450 7900 10150 7900
Wire Wire Line
	10150 7900 10150 7750
Text GLabel 9500 8400 0    50   Input ~ 0
GND
Wire Wire Line
	9500 8400 9750 8400
Connection ~ 9750 7650
Wire Wire Line
	9750 7650 9500 7650
$Comp
L fab:RES-US1206FAB R?
U 1 1 5EFCFC6A
P 9750 8000
F 0 "R?" V 9708 8068 45  0000 L CNN
F 1 "10K" V 9792 8068 45  0000 L CNN
F 2 "fab-R1206FAB" H 9780 8150 20  0001 C CNN
F 3 "" H 9750 8000 50  0001 C CNN
	1    9750 8000
	0    1    1    0   
$EndComp
Wire Wire Line
	9750 7800 9750 7650
Wire Wire Line
	9750 8200 9750 8400
Text GLabel 8250 3800 2    50   Input ~ 0
GMOSFET_01
Wire Wire Line
	7900 3800 8250 3800
Text Notes 6800 7500 0    50   ~ 0
MOSFET
Text Notes 13100 6850 0    50   ~ 0
AIR PUMP
Text GLabel 8250 2400 2    50   Input ~ 0
XTAL1
Text GLabel 8250 2500 2    50   Input ~ 0
XTAL2
Wire Wire Line
	7900 2500 8250 2500
Wire Wire Line
	7900 2400 8250 2400
Text GLabel 9500 5450 0    50   Input ~ 0
XTAL1
Text GLabel 10700 5450 2    50   Input ~ 0
XTAL2
Text GLabel 10350 5950 2    50   Input ~ 0
GND
Wire Wire Line
	10350 5950 10150 5950
Wire Wire Line
	10150 5950 10150 5750
Wire Wire Line
	9500 5450 9850 5450
Wire Wire Line
	10450 5450 10700 5450
Text Notes 9400 4900 0    50   ~ 0
RESONATOR 20MHZ
Text Notes 14750 1100 0    50   ~ 0
SOLENOID VALVE
$Comp
L pump:VALVE P2
U 1 1 5EFCDF48
P 14900 4650
F 0 "P2" H 14900 5000 50  0000 C CNN
F 1 "VALVE" H 14950 4650 50  0000 C CNN
F 2 "" H 14900 4650 50  0001 C CNN
F 3 "" H 14900 4650 50  0001 C CNN
	1    14900 4650
	1    0    0    -1  
$EndComp
Wire Wire Line
	13750 8950 13600 8950
Connection ~ 13750 8950
Wire Wire Line
	13750 8450 13750 8950
Wire Wire Line
	13750 7300 13600 7300
Connection ~ 13750 7300
Wire Wire Line
	13750 7300 13750 7700
Wire Wire Line
	13750 8050 13750 7900
$Comp
L fab:RES-US1206FAB R?
U 1 1 5EFDF175
P 13750 8250
F 0 "R?" V 13708 8318 45  0000 L CNN
F 1 "10K" V 13792 8318 45  0000 L CNN
F 2 "fab-R1206FAB" H 13780 8400 20  0001 C CNN
F 3 "" H 13750 8250 50  0001 C CNN
	1    13750 8250
	0    1    1    0   
$EndComp
$Comp
L fab:DIODESOD123 D?
U 1 1 5EFDE625
P 13750 7800
F 0 "D?" V 13750 8000 45  0000 R CNN
F 1 "DIODESOD123" V 13650 8400 45  0000 R CNN
F 2 "fab-SOD123" H 13780 7950 20  0001 C CNN
F 3 "" H 13750 7800 50  0001 C CNN
	1    13750 7800
	0    -1   -1   0   
$EndComp
Wire Wire Line
	14250 8950 13750 8950
Wire Wire Line
	14250 8200 14250 8950
Wire Wire Line
	14750 8200 14250 8200
Wire Wire Line
	14250 7300 13750 7300
Wire Wire Line
	14250 8000 14250 7300
Wire Wire Line
	14750 8000 14250 8000
Text GLabel 13600 7300 0    50   Input ~ 0
V12V
Text GLabel 13600 8950 0    50   Input ~ 0
DMOSFET_01
Wire Wire Line
	13650 5500 13500 5500
Connection ~ 13650 5500
Wire Wire Line
	13650 5000 13650 5500
Wire Wire Line
	13650 3850 13500 3850
Connection ~ 13650 3850
Wire Wire Line
	13650 3850 13650 4250
Wire Wire Line
	13650 4600 13650 4450
$Comp
L fab:RES-US1206FAB R?
U 1 1 5EFD637B
P 13650 4800
F 0 "R?" V 13608 4868 45  0000 L CNN
F 1 "10K" V 13692 4868 45  0000 L CNN
F 2 "fab-R1206FAB" H 13680 4950 20  0001 C CNN
F 3 "" H 13650 4800 50  0001 C CNN
	1    13650 4800
	0    1    1    0   
$EndComp
$Comp
L fab:DIODESOD123 D?
U 1 1 5EFD6381
P 13650 4350
F 0 "D?" V 13650 4550 45  0000 R CNN
F 1 "DIODESOD123" V 13550 4950 45  0000 R CNN
F 2 "fab-SOD123" H 13680 4500 20  0001 C CNN
F 3 "" H 13650 4350 50  0001 C CNN
	1    13650 4350
	0    -1   -1   0   
$EndComp
Wire Wire Line
	14150 5500 13650 5500
Wire Wire Line
	14150 4750 14150 5500
Wire Wire Line
	14650 4750 14150 4750
Wire Wire Line
	14150 3850 13650 3850
Wire Wire Line
	14150 4550 14150 3850
Wire Wire Line
	14650 4550 14150 4550
Text GLabel 13500 3850 0    50   Input ~ 0
V12V
Text GLabel 13500 5500 0    50   Input ~ 0
DMOSFET_03
$Comp
L fab:NMOSFETSOT23 T?
U 1 1 5EFD8EDF
P 10250 9450
F 0 "T?" H 10358 9492 45  0000 L CNN
F 1 "NMOSFETSOT23" H 10358 9408 45  0000 L CNN
F 2 "fab-SOT-23" H 10280 9600 20  0001 C CNN
F 3 "" H 10250 9450 50  0001 C CNN
	1    10250 9450
	1    0    0    -1  
$EndComp
Text GLabel 9600 9550 0    50   Input ~ 0
GMOSFET_02
Wire Wire Line
	10050 9550 9850 9550
Text GLabel 10550 9050 2    50   Input ~ 0
DMOSFET_02
Wire Wire Line
	10550 9050 10250 9050
Wire Wire Line
	10250 9050 10250 9250
Text GLabel 10550 9800 2    50   Input ~ 0
GND
Wire Wire Line
	10550 9800 10250 9800
Wire Wire Line
	10250 9800 10250 9650
Text GLabel 9600 10300 0    50   Input ~ 0
GND
Wire Wire Line
	9600 10300 9850 10300
Connection ~ 9850 9550
Wire Wire Line
	9850 9550 9600 9550
$Comp
L fab:RES-US1206FAB R?
U 1 1 5EFD8EF1
P 9850 9900
F 0 "R?" V 9808 9968 45  0000 L CNN
F 1 "10K" V 9892 9968 45  0000 L CNN
F 2 "fab-R1206FAB" H 9880 10050 20  0001 C CNN
F 3 "" H 9850 9900 50  0001 C CNN
	1    9850 9900
	0    1    1    0   
$EndComp
Wire Wire Line
	9850 9700 9850 9550
Wire Wire Line
	9850 10100 9850 10300
$Comp
L pump:VALVE P?
U 1 1 5EFDD42E
P 14850 2100
F 0 "P?" H 14850 2450 50  0000 C CNN
F 1 "VALVE" H 14900 2100 50  0000 C CNN
F 2 "" H 14850 2100 50  0001 C CNN
F 3 "" H 14850 2100 50  0001 C CNN
	1    14850 2100
	1    0    0    -1  
$EndComp
Wire Wire Line
	13600 2950 13450 2950
Connection ~ 13600 2950
Wire Wire Line
	13600 2450 13600 2950
Wire Wire Line
	13600 1300 13450 1300
Connection ~ 13600 1300
Wire Wire Line
	13600 1300 13600 1700
Wire Wire Line
	13600 2050 13600 1900
$Comp
L fab:RES-US1206FAB R?
U 1 1 5EFDD43B
P 13600 2250
F 0 "R?" V 13558 2318 45  0000 L CNN
F 1 "10K" V 13642 2318 45  0000 L CNN
F 2 "fab-R1206FAB" H 13630 2400 20  0001 C CNN
F 3 "" H 13600 2250 50  0001 C CNN
	1    13600 2250
	0    1    1    0   
$EndComp
$Comp
L fab:DIODESOD123 D?
U 1 1 5EFDD441
P 13600 1800
F 0 "D?" V 13600 2000 45  0000 R CNN
F 1 "DIODESOD123" V 13500 2400 45  0000 R CNN
F 2 "fab-SOD123" H 13630 1950 20  0001 C CNN
F 3 "" H 13600 1800 50  0001 C CNN
	1    13600 1800
	0    -1   -1   0   
$EndComp
Wire Wire Line
	14100 2950 13600 2950
Wire Wire Line
	14100 2200 14100 2950
Wire Wire Line
	14600 2200 14100 2200
Wire Wire Line
	14100 1300 13600 1300
Wire Wire Line
	14100 2000 14100 1300
Wire Wire Line
	14600 2000 14100 2000
Text GLabel 13450 1300 0    50   Input ~ 0
V12V
Text GLabel 13450 2950 0    50   Input ~ 0
DMOSFET_02
Text Notes 850  8150 0    50   ~ 0
POWER
Text GLabel 1000 9500 0    50   Input ~ 0
V12V
Text GLabel 4850 8900 2    50   Input ~ 0
V5V
$Comp
L CUSTOM_POWER:BOOST_BUCK B1
U 1 1 5EFE8860
P 2800 9100
F 0 "B1" H 2750 9600 50  0000 L CNN
F 1 "BOOST_BUCK" H 2600 9100 50  0000 L CNN
F 2 "" H 2800 9200 50  0001 C CNN
F 3 "" H 2800 9200 50  0001 C CNN
	1    2800 9100
	1    0    0    -1  
$EndComp
Wire Wire Line
	3650 8900 3500 8900
Text GLabel 3650 9300 2    50   Input ~ 0
GND
Wire Wire Line
	3300 9300 3500 9300
Text GLabel 1950 9300 0    50   Input ~ 0
GND
Wire Wire Line
	2300 9300 1950 9300
Wire Wire Line
	1000 9500 1500 9500
Wire Wire Line
	1500 9500 1500 8900
Wire Wire Line
	1500 8900 2300 8900
$Comp
L fab:NMOSFETSOT23 T?
U 1 1 5EFFFF23
P 7650 9500
F 0 "T?" H 7758 9542 45  0000 L CNN
F 1 "NMOSFETSOT23" H 7758 9458 45  0000 L CNN
F 2 "fab-SOT-23" H 7680 9650 20  0001 C CNN
F 3 "" H 7650 9500 50  0001 C CNN
	1    7650 9500
	1    0    0    -1  
$EndComp
Text GLabel 7000 9600 0    50   Input ~ 0
GMOSFET_01
Wire Wire Line
	7450 9600 7250 9600
Text GLabel 7950 9100 2    50   Input ~ 0
DMOSFET_01
Wire Wire Line
	7950 9100 7650 9100
Wire Wire Line
	7650 9100 7650 9300
Text GLabel 7950 9850 2    50   Input ~ 0
GND
Wire Wire Line
	7950 9850 7650 9850
Wire Wire Line
	7650 9850 7650 9700
Text GLabel 7000 10350 0    50   Input ~ 0
GND
Wire Wire Line
	7000 10350 7250 10350
Connection ~ 7250 9600
Wire Wire Line
	7250 9600 7000 9600
$Comp
L fab:RES-US1206FAB R?
U 1 1 5EFFFF35
P 7250 9950
F 0 "R?" V 7208 10018 45  0000 L CNN
F 1 "10K" V 7292 10018 45  0000 L CNN
F 2 "fab-R1206FAB" H 7280 10100 20  0001 C CNN
F 3 "" H 7250 9950 50  0001 C CNN
	1    7250 9950
	0    1    1    0   
$EndComp
Wire Wire Line
	7250 9750 7250 9600
Wire Wire Line
	7250 10150 7250 10350
Wire Notes Line
	800  7750 5400 7750
Wire Notes Line
	5400 7750 5400 10700
Wire Notes Line
	5750 7650 5750 6700
Wire Notes Line
	5750 6700 11700 6700
Wire Notes Line
	11700 6700 11700 9800
Wire Notes Line
	11800 6250 15700 6250
Wire Notes Line
	11800 6000 11800 900 
Wire Notes Line
	8400 6250 8400 4500
Wire Notes Line
	8400 4500 11700 4500
Text GLabel 8250 4000 2    50   Input ~ 0
GMOSFET_02
Text GLabel 8250 4100 2    50   Input ~ 0
GMOSFET_03
Wire Wire Line
	8250 4000 7900 4000
Wire Wire Line
	8250 4100 7900 4100
$Comp
L fab:RES-US1206FAB R?
U 1 1 5F06DF91
P 3850 8450
F 0 "R?" H 3850 8644 45  0000 C CNN
F 1 "500ohms" H 3850 8560 45  0000 C CNN
F 2 "fab-R1206FAB" H 3880 8600 20  0001 C CNN
F 3 "" H 3850 8450 50  0001 C CNN
	1    3850 8450
	1    0    0    -1  
$EndComp
$Comp
L fab:LEDFAB1206 M?
U 1 1 5F076981
P 4500 8450
F 0 "M?" V 4704 8500 45  0000 C CNN
F 1 "LEDFAB1206" V 4620 8500 45  0000 C CNN
F 2 "fab-LED1206FAB" H 4530 8600 20  0001 C CNN
F 3 "" H 4500 8450 50  0001 C CNN
	1    4500 8450
	0    -1   -1   0   
$EndComp
Wire Wire Line
	3650 8900 3650 8450
Wire Wire Line
	4050 8450 4300 8450
Connection ~ 3650 8900
Text GLabel 8250 1900 2    50   Input ~ 0
LED_01
Text GLabel 8250 2000 2    50   Input ~ 0
LED_02
Text GLabel 8250 2100 2    50   Input ~ 0
LED_03
Wire Wire Line
	8250 2100 7900 2100
Wire Wire Line
	7900 2000 8250 2000
Wire Wire Line
	8250 1900 7900 1900
Text GLabel 9600 1550 0    50   Input ~ 0
LED_01
$Comp
L fab:RES-US1206FAB R?
U 1 1 5F0BB01A
P 10050 1550
F 0 "R?" H 10050 1744 45  0000 C CNN
F 1 "RES-US1206FAB" H 10050 1660 45  0000 C CNN
F 2 "fab-R1206FAB" H 10080 1700 20  0001 C CNN
F 3 "" H 10050 1550 50  0001 C CNN
	1    10050 1550
	1    0    0    -1  
$EndComp
$Comp
L fab:LEDFAB1206 M?
U 1 1 5F0BBCD6
P 10750 1550
F 0 "M?" V 10954 1600 45  0000 C CNN
F 1 "LEDFAB1206" V 10870 1600 45  0000 C CNN
F 2 "fab-LED1206FAB" H 10780 1700 20  0001 C CNN
F 3 "" H 10750 1550 50  0001 C CNN
	1    10750 1550
	0    -1   -1   0   
$EndComp
Text GLabel 11200 1550 2    50   Input ~ 0
GND
Wire Wire Line
	11200 1550 10850 1550
Wire Wire Line
	10550 1550 10250 1550
Wire Wire Line
	9850 1550 9600 1550
Text GLabel 9600 2050 0    50   Input ~ 0
LED_02
$Comp
L fab:RES-US1206FAB R?
U 1 1 5F0D104B
P 10050 2050
F 0 "R?" H 10050 2244 45  0000 C CNN
F 1 "RES-US1206FAB" H 10050 2160 45  0000 C CNN
F 2 "fab-R1206FAB" H 10080 2200 20  0001 C CNN
F 3 "" H 10050 2050 50  0001 C CNN
	1    10050 2050
	1    0    0    -1  
$EndComp
$Comp
L fab:LEDFAB1206 M?
U 1 1 5F0D1051
P 10750 2050
F 0 "M?" V 10954 2100 45  0000 C CNN
F 1 "LEDFAB1206" V 10870 2100 45  0000 C CNN
F 2 "fab-LED1206FAB" H 10780 2200 20  0001 C CNN
F 3 "" H 10750 2050 50  0001 C CNN
	1    10750 2050
	0    -1   -1   0   
$EndComp
Text GLabel 11200 2050 2    50   Input ~ 0
GND
Wire Wire Line
	11200 2050 10850 2050
Wire Wire Line
	10550 2050 10250 2050
Wire Wire Line
	9850 2050 9600 2050
Text GLabel 9600 2600 0    50   Input ~ 0
LED_03
$Comp
L fab:RES-US1206FAB R?
U 1 1 5F0D797D
P 10050 2600
F 0 "R?" H 10050 2794 45  0000 C CNN
F 1 "RES-US1206FAB" H 10050 2710 45  0000 C CNN
F 2 "fab-R1206FAB" H 10080 2750 20  0001 C CNN
F 3 "" H 10050 2600 50  0001 C CNN
	1    10050 2600
	1    0    0    -1  
$EndComp
$Comp
L fab:LEDFAB1206 M?
U 1 1 5F0D7983
P 10750 2600
F 0 "M?" V 10954 2650 45  0000 C CNN
F 1 "LEDFAB1206" V 10870 2650 45  0000 C CNN
F 2 "fab-LED1206FAB" H 10780 2750 20  0001 C CNN
F 3 "" H 10750 2600 50  0001 C CNN
	1    10750 2600
	0    -1   -1   0   
$EndComp
Text GLabel 11200 2600 2    50   Input ~ 0
GND
Wire Wire Line
	11200 2600 10850 2600
Wire Wire Line
	10550 2600 10250 2600
Wire Wire Line
	9850 2600 9600 2600
Text Notes 9300 900  0    50   ~ 0
LED
Wire Notes Line
	9100 700  9100 3050
Wire Notes Line
	9100 3050 11650 3050
Text Notes 15450 1100 0    50   ~ 0
+2
Text Notes 7200 7500 0    50   ~ 0
+2
Wire Wire Line
	3500 8950 3500 8900
Connection ~ 3500 8900
Wire Wire Line
	3500 8900 3300 8900
Wire Wire Line
	3500 9250 3500 9300
Connection ~ 3500 9300
Wire Wire Line
	3500 9300 3650 9300
Text GLabel 4850 8450 2    50   Input ~ 0
GND
Wire Wire Line
	4850 8450 4600 8450
Wire Wire Line
	3650 8900 4850 8900
$Comp
L fab:CAP-UNPOLARIZEDFAB C?
U 1 1 5F02B22B
P 3500 9150
F 0 "C?" V 3408 9238 45  0000 L CNN
F 1 "CAP-UNPOLARIZEDFAB" V 3492 9238 45  0000 L CNN
F 2 "fab-C1206FAB" H 3530 9300 20  0001 C CNN
F 3 "" H 3500 9150 50  0001 C CNN
	1    3500 9150
	0    1    1    0   
$EndComp
$Comp
L fab:ATMEGA16U2-TQ M?
U 1 1 5F0358DB
P 9350 -1950
F 0 "M?" H 9400 -764 45  0000 C CNN
F 1 "ATMEGA16U2-TQ" H 9350 -1950 45  0001 L BNN
F 2 "fab-TQFP32-08THIN" H 9380 -1800 20  0001 C CNN
F 3 "" H 9350 -1950 50  0001 C CNN
	1    9350 -1950
	1    0    0    -1  
$EndComp
$Comp
L fab:DIODESOD123 D?
U 1 1 5F037548
P 14350 1300
F 0 "D?" V 14308 1378 45  0000 L CNN
F 1 "DIODESOD123" V 14392 1378 45  0000 L CNN
F 2 "fab-SOD123" H 14380 1450 20  0001 C CNN
F 3 "" H 14350 1300 50  0001 C CNN
	1    14350 1300
	0    1    1    0   
$EndComp
$Comp
L fab:CAP-UNPOLARIZEDFAB C?
U 1 1 5F038A1E
P 14000 1050
F 0 "C?" H 13950 1264 45  0000 C CNN
F 1 "CAP-UNPOLARIZEDFAB" H 13950 1180 45  0000 C CNN
F 2 "fab-C1206FAB" H 14030 1200 20  0001 C CNN
F 3 "" H 14000 1050 50  0001 C CNN
	1    14000 1050
	1    0    0    -1  
$EndComp
$EndSCHEMATC
